Krylova~Maria~89101076815~23.01.2001
Labutina~Ksenia~89960006985~05.05.2001
Volkova~Irina~+79200095917~01.06.2000
Trofimov~Arseniy~89503560720~
Kirsanova~Daria~89159507132~08.11.2000
Belousova~Alina~+79519092286~31.01.2002
Kochetkov~Anton~+79101032248~07.08.1992
Zotova~Anna~+79087383138~17.10.2000
Gindinson~Artem~89200417188~
Chazanov~Boris~89307005363~28.07.2002
Chazanov~Grigoriy~+79625096718~
Sadova~Daria~89201114083~
Tokareva~Daria~+79875430274~02.02.2001
Kulandin~Denis~89159320910~25.05.2000
Ahmedjanov~Dmitriy~89107959641~
Kalmikov~Egor~89519146981~07.06.1999
Rodionov~Igor~89101476707~
Tihobaev~Ilya~89306991480~
Solovyov~Ilya~+79087262503~14.10.2000
Krylova~Irina~+79101461469~08.01.1992
Raykov~Kirill~89991383815~
Tishenko~Kirill~89200002477~
Gorbunova~Valeria~+79159481997~28.05.2000
Krylova~Marina~89092966565~10.12.1970
Krylov~Igor~89087279188~28.11.1965
Krylov~Igor~89357869845~28.11.1965
Demochkina~Polina~89290441130~30.01.2001
Yausheva~Polina~+79087696335~14.06.2001
Polyakov~Andrey~+7920030565~04.11.1999
Litvak~Aleksandra~89867659744~
Shadrina~Ekaterina~89307013760~08.02.2000
Klenkov~Andrey~89999999999~02.12.2000
Ivanov~Ivan~89999999999~01.01.2000
Ivanov~Ivan~80000000000~01.01.2000
R~E~89003452314~
